Sample	raw_total_sequences	filtered_sequences	sequences	is_sorted	1st_fragments	last_fragments	reads_mapped	reads_mapped_and_paired	reads_unmapped	reads_properly_paired	reads_paired	reads_duplicated	reads_MQ0	reads_QC_failed	non-primary_alignments	total_length	total_first_fragment_length	total_last_fragment_length	bases_mapped	bases_mapped_(cigar)	bases_trimmed	bases_duplicated	mismatches	error_rate	average_length	average_first_fragment_length	average_last_fragment_length	maximum_length	maximum_first_fragment_length	maximum_last_fragment_length	average_quality	insert_size_average	insert_size_standard_deviation	inward_oriented_pairs	outward_oriented_pairs	pairs_with_other_orientation	pairs_on_different_chromosomes	percentage_of_properly_paired_reads_(%)	reads_mapped_percent	reads_mapped_and_paired_percent	reads_unmapped_percent	reads_properly_paired_percent	reads_paired_percent	reads_duplicated_percent	reads_MQ0_percent	reads_QC_failed_percent
ANI_W07_F001	15814864.0	0.0	15814864.0	1.0	7942101.0	7872763.0	15814864.0	15637872.0	0.0	15435492.0	15814496.0	0.0	0.0	0.0	0.0	2054594036.0	1032349976.0	1022244060.0	2054594036.0	1492876599.0	0.0	0.0	15623799.0	0.01046557	129.0	130.0	130.0	150.0	150.0	150.0	39.1	216.4	142.1	6214157.0	1597160.0	558.0	7060.0	97.6	100.0	98.88085031904164	0.0	97.6011681162734	99.99767307515259	0.0	0.0	0.0
ANI_W07_F004	15523612.0	0.0	15523612.0	1.0	7797294.0	7726318.0	15523612.0	15353351.0	0.0	15174322.0	15523207.0	0.0	0.0	0.0	0.0	2009872304.0	1010140594.0	999731710.0	2009872304.0	1496713198.0	0.0	0.0	15211288.0	0.01016313	129.0	130.0	129.0	150.0	150.0	150.0	39.1	230.5	160.0	6157388.0	1511668.0	539.0	7079.0	97.7	100.0	98.9032127316761	0.0	97.74994376308813	99.99739107109866	0.0	0.0	0.0
ANI_W07_F037	19207086.0	0.0	19207086.0	1.0	9641371.0	9565715.0	19207086.0	19014404.0	0.0	18785098.0	19206708.0	0.0	0.0	0.0	0.0	2435833618.0	1223421114.0	1212412504.0	2435833618.0	1768466420.0	0.0	0.0	17959285.0	0.01015529	126.0	127.0	127.0	150.0	150.0	150.0	39.2	214.5	149.8	7423157.0	2074302.0	616.0	9126.0	97.8	100.0	98.9968181534669	0.0	97.80295667963375	99.99803197632374	0.0	0.0	0.0
ANI_W07_F040	29845217.0	0.0	29845217.0	1.0	14992772.0	14852445.0	29845217.0	29529368.0	0.0	29171588.0	29844781.0	0.0	0.0	0.0	0.0	3861498375.0	1941032054.0	1920466321.0	3861498375.0	2841139989.0	0.0	0.0	29745379.0	0.01046952	129.0	129.0	129.0	150.0	150.0	150.0	39.0	222.2	149.4	11764717.0	2984579.0	998.0	14389.0	97.7	100.0	98.94170982238126	0.0	97.74292477082676	99.9985391294022	0.0	0.0	0.0
ANI_W07_F041	17236861.0	0.0	17236861.0	1.0	8651596.0	8585265.0	17236861.0	17061248.0	0.0	16861922.0	17236475.0	0.0	0.0	0.0	0.0	2224745203.0	1117224951.0	1107520252.0	2224745203.0	1653695198.0	0.0	0.0	16823614.0	0.01017335	129.0	129.0	129.0	150.0	150.0	150.0	39.1	228.8	157.8	6812785.0	1708382.0	527.0	8929.0	97.8	100.0	98.98117760536562	0.0	97.82478375848132	99.9977606131418	0.0	0.0	0.0
ANI_W07_F044	17460237.0	0.0	17460237.0	1.0	8769612.0	8690625.0	17460237.0	17267772.0	0.0	17060714.0	17459994.0	0.0	0.0	0.0	0.0	2252911528.0	1132218989.0	1120692539.0	2252911528.0	1661852331.0	0.0	0.0	17365881.0	0.01044971	129.0	129.0	129.0	150.0	150.0	150.0	39.0	225.6	157.0	6874537.0	1750532.0	634.0	8181.0	97.7	100.0	98.89769537492532	0.0	97.71181227379674	99.99860826631391	0.0	0.0	0.0
ANI_W07_M015	18789039.0	0.0	18789039.0	1.0	9435433.0	9353606.0	18789039.0	18575107.0	0.0	18354676.0	18788788.0	0.0	0.0	0.0	0.0	2471110706.0	1241571495.0	1229539211.0	2471110706.0	1854714171.0	0.0	0.0	18812560.0	0.0101431	131.0	132.0	131.0	150.0	150.0	150.0	39.1	234.8	156.2	7555502.0	1721696.0	770.0	9584.0	97.7	100.0	98.86139998964289	0.0	97.68821066367471	99.99866411475328	0.0	0.0	0.0
ANI_W07_M019	18148570.0	0.0	18148570.0	1.0	9118610.0	9029960.0	18148570.0	17930560.0	0.0	17739412.0	18148279.0	0.0	0.0	0.0	0.0	2476943850.0	1245046786.0	1231897064.0	2476943850.0	1954689890.0	0.0	0.0	19751031.0	0.01010443	136.0	137.0	136.0	150.0	150.0	150.0	38.9	264.8	161.2	7665400.0	1288752.0	710.0	10417.0	97.7	100.0	98.79874833113573	0.0	97.74550832379632	99.99839656788386	0.0	0.0	0.0
ANI_W07_M026	16632974.0	0.0	16632974.0	1.0	8362244.0	8270730.0	16632974.0	16411746.0	0.0	16216558.0	16632751.0	0.0	0.0	0.0	0.0	2244328729.0	1128941112.0	1115387617.0	2244328729.0	1734989176.0	0.0	0.0	18398926.0	0.01060463	134.0	135.0	135.0	150.0	150.0	150.0	39.0	255.5	164.7	6879479.0	1314119.0	876.0	11398.0	97.5	100.0	98.66994321039641	0.0	97.49644290912738	99.99865928967363	0.0	0.0	0.0
ANI_W07_M028	18750699.0	0.0	18750699.0	1.0	9426662.0	9324037.0	18750699.0	18480570.0	0.0	18295198.0	18750459.0	0.0	0.0	0.0	0.0	2694008193.0	1354673889.0	1339334304.0	2694008193.0	2214336660.0	0.0	0.0	22535051.0	0.01017689	143.0	144.0	144.0	150.0	150.0	150.0	38.9	293.4	156.4	8440671.0	786626.0	961.0	12026.0	97.6	100.0	98.55936570684645	0.0	97.57075189570266	99.99872004771662	0.0	0.0	0.0
ANI_W07_M030	17627286.0	0.0	17627286.0	1.0	8854441.0	8772845.0	17627286.0	17405292.0	0.0	17215138.0	17627072.0	0.0	0.0	0.0	0.0	2436714403.0	1224417713.0	1212296690.0	2436714403.0	1941436052.0	0.0	0.0	19631647.0	0.01011192	138.0	138.0	138.0	150.0	150.0	150.0	38.9	277.0	169.8	7533246.0	1157193.0	788.0	11418.0	97.7	100.0	98.7406229183551	0.0	97.66187489100705	99.99878597306471	0.0	0.0	0.0
ANI_W07_M035	17369143.0	0.0	17369143.0	1.0	8743232.0	8625911.0	17369143.0	17085475.0	0.0	16928854.0	17368851.0	0.0	0.0	0.0	0.0	2514428417.0	1266002123.0	1248426294.0	2514428417.0	2123898387.0	0.0	0.0	22123401.0	0.01041641	144.0	145.0	145.0	150.0	150.0	150.0	38.7	314.2	164.8	7930549.0	597124.0	953.0	14110.0	97.5	100.0	98.36682788552089	0.0	97.4651080942796	99.99831885775826	0.0	0.0	0.0
PBC_W04_F004	17149894.0	0.0	17149894.0	1.0	8609182.0	8540712.0	17149894.0	16969107.0	0.0	16768262.0	17149614.0	0.0	0.0	0.0	0.0	2275282619.0	1142658710.0	1132623909.0	2275282619.0	1713961947.0	0.0	0.0	17214121.0	0.01004347	132.0	133.0	133.0	150.0	150.0	150.0	39.1	234.5	148.5	6971178.0	1503936.0	550.0	8888.0	97.8	100.0	98.94584188100521	0.0	97.77472677090599	99.99836733684768	0.0	0.0	0.0
PBC_W04_F010	16542332.0	0.0	16542332.0	1.0	8333120.0	8209212.0	16542332.0	16286442.0	0.0	16106222.0	16542084.0	0.0	0.0	0.0	0.0	2273309140.0	1145878520.0	1127430620.0	2273309140.0	1825917872.0	0.0	0.0	20085947.0	0.01100047	137.0	138.0	137.0	150.0	150.0	150.0	38.7	286.2	183.9	7023595.0	1103262.0	860.0	15503.0	97.4	100.0	98.45312015258791	0.0	97.363672788093	99.99850081596719	0.0	0.0	0.0
PBC_W04_F013	17145729.0	0.0	17145729.0	1.0	8612292.0	8533437.0	17145729.0	16944270.0	0.0	16748026.0	17145476.0	0.0	0.0	0.0	0.0	2284168665.0	1147900454.0	1136268211.0	2284168665.0	1744283316.0	0.0	0.0	18004909.0	0.01032224	133.0	133.0	133.0	150.0	150.0	150.0	39.0	246.4	161.9	7007277.0	1454032.0	665.0	10160.0	97.7	100.0	98.8250193386353	0.0	97.68045441520744	99.99852441386423	0.0	0.0	0.0
PBC_W04_F015	18613594.0	0.0	18613594.0	1.0	9361876.0	9251718.0	18613594.0	18355819.0	0.0	18153270.0	18613374.0	0.0	0.0	0.0	0.0	2560613237.0	1288494846.0	1272118391.0	2560613237.0	2039307568.0	0.0	0.0	21721371.0	0.01065135	137.0	138.0	138.0	150.0	150.0	150.0	38.8	276.0	171.8	7914579.0	1248943.0	858.0	13528.0	97.5	100.0	98.61512505322723	0.0	97.52694724081765	99.99881806812806	0.0	0.0	0.0
PBC_W04_F044	20317854.0	0.0	20317854.0	1.0	10207911.0	10109943.0	20317854.0	20084811.0	0.0	19850812.0	20317576.0	0.0	0.0	0.0	0.0	2715506074.0	1364991625.0	1350514449.0	2715506074.0	2067866887.0	0.0	0.0	21041344.0	0.01017539	133.0	134.0	134.0	150.0	150.0	150.0	39.1	242.7	154.4	8324226.0	1706492.0	687.0	10999.0	97.7	100.0	98.85301370902656	0.0	97.70132219672412	99.99863174526207	0.0	0.0	0.0
PBC_W04_F045	15133481.0	0.0	15133481.0	1.0	7602825.0	7530656.0	15133481.0	14952307.0	0.0	14780940.0	15133301.0	0.0	0.0	0.0	0.0	2042246046.0	1026449202.0	1015796844.0	2042246046.0	1578561059.0	0.0	0.0	16273862.0	0.0103093	134.0	135.0	135.0	150.0	150.0	150.0	39.0	254.1	161.9	6271365.0	1195003.0	572.0	9213.0	97.7	100.0	98.80282665964295	0.0	97.67045665171152	99.9988105842932	0.0	0.0	0.0
PBC_W04_M007	20133649.0	0.0	20133649.0	1.0	10105265.0	10028384.0	20133649.0	19937287.0	0.0	19696322.0	20133279.0	0.0	0.0	0.0	0.0	2578752383.0	1294986445.0	1283765938.0	2578752383.0	1882052152.0	0.0	0.0	19196129.0	0.01019957	128.0	128.0	128.0	150.0	150.0	150.0	39.1	217.4	148.4	7858783.0	2099767.0	517.0	9575.0	97.8	100.0	99.02470734440637	0.0	97.82788008274109	99.99816228046889	0.0	0.0	0.0
PBC_W04_M009	17419048.0	0.0	17419048.0	1.0	8754746.0	8664302.0	17419048.0	17209276.0	0.0	17010236.0	17418725.0	0.0	0.0	0.0	0.0	2317971052.0	1165652837.0	1152318215.0	2317971052.0	1777588251.0	0.0	0.0	18781678.0	0.01056582	133.0	133.0	133.0	150.0	150.0	150.0	38.9	251.3	169.6	7121322.0	1471255.0	705.0	11355.0	97.7	100.0	98.79573212037765	0.0	97.65307495564626	99.99814570807773	0.0	0.0	0.0
PBC_W04_M010	21418375.0	0.0	21418375.0	1.0	10752730.0	10665645.0	21418375.0	21197249.0	0.0	20937474.0	21417979.0	0.0	0.0	0.0	0.0	2771111914.0	1391928756.0	1379183158.0	2771111914.0	2045028906.0	0.0	0.0	21002650.0	0.0102701	129.0	129.0	129.0	150.0	150.0	150.0	39.1	225.1	153.9	8453274.0	2132345.0	618.0	12386.0	97.8	100.0	98.96758741034274	0.0	97.7547269575773	99.99815112024139	0.0	0.0	0.0
PBC_W04_M025	20518877.0	0.0	20518877.0	1.0	10310815.0	10208062.0	20518877.0	20291633.0	0.0	20046310.0	20518419.0	0.0	0.0	0.0	0.0	2639848961.0	1327464432.0	1312384529.0	2639848961.0	1950144125.0	0.0	0.0	20341526.0	0.01043078	128.0	129.0	129.0	150.0	150.0	150.0	39.1	227.4	161.3	8053813.0	2079463.0	601.0	11938.0	97.7	100.0	98.89251248984046	0.0	97.69691586922617	99.99776790903323	0.0	0.0	0.0
PBC_W04_M042	19862864.0	0.0	19862864.0	1.0	9969257.0	9893607.0	19862864.0	19661959.0	0.0	19427398.0	19862528.0	0.0	0.0	0.0	0.0	2606851478.0	1308959936.0	1297891542.0	2606851478.0	1943769418.0	0.0	0.0	19511531.0	0.01003799	131.0	131.0	131.0	150.0	150.0	150.0	39.2	229.7	150.2	7969074.0	1851022.0	600.0	10283.0	97.8	100.0	98.98853961845583	0.0	97.80763740818041	99.99830840104428	0.0	0.0	0.0
PBC_W04_M068	17901207.0	0.0	17901207.0	1.0	8990365.0	8910842.0	17901207.0	17693392.0	0.0	17489152.0	17900934.0	0.0	0.0	0.0	0.0	2411947592.0	1211853466.0	1200094126.0	2411947592.0	1857667118.0	0.0	0.0	18791047.0	0.0101154	134.0	135.0	135.0	150.0	150.0	150.0	39.1	250.4	157.7	7405460.0	1429559.0	701.0	10976.0	97.7	100.0	98.83910062600808	0.0	97.69817197242622	99.99847496316868	0.0	0.0	0.0
QCI_W04_F015	18283131.0	0.0	18283131.0	1.0	9194317.0	9088814.0	18283131.0	18044637.0	0.0	17848218.0	18282796.0	0.0	0.0	0.0	0.0	2490246111.0	1252951080.0	1237295031.0	2490246111.0	1968302236.0	0.0	0.0	20520700.0	0.01042558	136.0	136.0	136.0	150.0	150.0	150.0	38.9	271.9	174.5	7692082.0	1317339.0	754.0	12142.0	97.6	100.0	98.69555165359807	0.0	97.62123347472597	99.99816770989608	0.0	0.0	0.0
QCI_W04_F033	18363781.0	0.0	18363781.0	1.0	9226897.0	9136884.0	18363781.0	18160062.0	0.0	17936156.0	18363452.0	0.0	0.0	0.0	0.0	2342039486.0	1177606014.0	1164433472.0	2342039486.0	1708900128.0	0.0	0.0	18029930.0	0.01055061	127.0	128.0	127.0	150.0	150.0	150.0	39.1	221.5	160.4	7115141.0	1954085.0	618.0	10186.0	97.7	100.0	98.89064784643206	0.0	97.67136735076507	99.99820842995241	0.0	0.0	0.0
QCI_W04_F045	16963494.0	0.0	16963494.0	1.0	8516327.0	8447167.0	16963494.0	16782365.0	0.0	16580376.0	16963242.0	0.0	0.0	0.0	0.0	2200637356.0	1105407064.0	1095230292.0	2200637356.0	1638391161.0	0.0	0.0	16704785.0	0.01019585	129.0	130.0	130.0	150.0	150.0	150.0	39.1	232.9	163.8	6720691.0	1660070.0	600.0	9820.0	97.7	100.0	98.93224237884012	0.0	97.7415148082111	99.99851445698627	0.0	0.0	0.0
QCI_W04_F050	21545098.0	0.0	21545098.0	1.0	10828132.0	10716966.0	21545098.0	21291930.0	0.0	21040068.0	21544690.0	0.0	0.0	0.0	0.0	2798060371.0	1407192684.0	1390867687.0	2798060371.0	2098330727.0	0.0	0.0	22241268.0	0.01059951	129.0	130.0	130.0	150.0	150.0	150.0	39.0	237.4	168.2	8557361.0	2074231.0	810.0	13562.0	97.7	100.0	98.82493920426818	0.0	97.65594011222414	99.99810629777595	0.0	0.0	0.0
QCI_W04_F052	16062739.0	0.0	16062739.0	1.0	8077773.0	7984966.0	16062739.0	15849382.0	0.0	15676736.0	16062533.0	0.0	0.0	0.0	0.0	2176998624.0	1095387519.0	1081611105.0	2176998624.0	1713033144.0	0.0	0.0	17802343.0	0.01039229	135.0	136.0	135.0	150.0	150.0	150.0	38.9	269.9	177.2	6713958.0	1199494.0	648.0	10590.0	97.6	100.0	98.67172715686907	0.0	97.5969042390591	99.99871752881	0.0	0.0	0.0
QCI_W04_F055	16231757.0	0.0	16231757.0	1.0	8155571.0	8076186.0	16231757.0	16032406.0	0.0	15844004.0	16231526.0	0.0	0.0	0.0	0.0	2189100470.0	1100421190.0	1088679280.0	2189100470.0	1688206771.0	0.0	0.0	17654121.0	0.01045732	134.0	135.0	135.0	150.0	150.0	150.0	38.9	254.6	164.7	6713121.0	1292656.0	650.0	9775.0	97.6	100.0	98.77184583283251	0.0	97.61114585438902	99.99857686386015	0.0	0.0	0.0
QCI_W04_M016	18326335.0	0.0	18326335.0	1.0	9202936.0	9123399.0	18326335.0	18119105.0	0.0	17902958.0	18326045.0	0.0	0.0	0.0	0.0	2428497763.0	1220094149.0	1208403614.0	2428497763.0	1840318705.0	0.0	0.0	19101142.0	0.01037926	132.0	133.0	132.0	150.0	150.0	150.0	39.0	241.3	159.3	7438943.0	1609194.0	634.0	10780.0	97.7	100.0	98.86922289699496	0.0	97.68978903856117	99.99841757776446	0.0	0.0	0.0
QCI_W04_M027	16408904.0	0.0	16408904.0	1.0	8238303.0	8170601.0	16408904.0	16225752.0	0.0	16037114.0	16408652.0	0.0	0.0	0.0	0.0	2206152378.0	1108055422.0	1098096956.0	2206152378.0	1682715052.0	0.0	0.0	16993184.0	0.01009867	134.0	135.0	134.0	150.0	150.0	150.0	39.1	241.5	148.0	6769056.0	1334978.0	540.0	8301.0	97.7	100.0	98.88382551327011	0.0	97.73421795873752	99.99846424843487	0.0	0.0	0.0
QCI_W04_M047	16588165.0	0.0	16588165.0	1.0	8326938.0	8261227.0	16588165.0	16412888.0	0.0	16204058.0	16587964.0	0.0	0.0	0.0	0.0	2178694319.0	1094159032.0	1084535287.0	2178694319.0	1595639431.0	0.0	0.0	16290572.0	0.01020943	131.0	131.0	131.0	150.0	150.0	150.0	39.2	220.8	140.9	6594848.0	1603626.0	517.0	7452.0	97.7	100.0	98.94336112523597	0.0	97.68445153517582	99.99878829273763	0.0	0.0	0.0
QCI_W04_M057	15888453.0	0.0	15888453.0	1.0	8016073.0	7872380.0	15888453.0	15584976.0	0.0	15465686.0	15888201.0	0.0	0.0	0.0	0.0	2279854148.0	1150691308.0	1129162840.0	2279854148.0	2010310938.0	0.0	0.0	21756331.0	0.01082237	143.0	144.0	143.0	150.0	150.0	150.0	38.5	356.4	192.2	7230503.0	543589.0	931.0	17464.0	97.3	100.0	98.08995249568979	0.0	97.33915567487911	99.99841394250278	0.0	0.0	0.0
QCI_W04_M059	17210430.0	0.0	17210430.0	1.0	8634282.0	8576148.0	17210430.0	17051906.0	0.0	16837184.0	17210180.0	0.0	0.0	0.0	0.0	2183149451.0	1095773819.0	1087375632.0	2183149451.0	1557887830.0	0.0	0.0	15706581.0	0.01008197	126.0	127.0	127.0	150.0	150.0	150.0	39.2	203.1	133.6	6623032.0	1895640.0	442.0	6839.0	97.8	100.0	99.0789073834878	0.0	97.83128021786789	99.99854739248235	0.0	0.0	0.0
QCI_W04_M062	18373489.0	0.0	18373489.0	1.0	9209815.0	9163674.0	18373489.0	18231806.0	0.0	17992540.0	18373156.0	0.0	0.0	0.0	0.0	2278426866.0	1142484493.0	1135942373.0	2278426866.0	1561457641.0	0.0	0.0	15519045.0	0.009938819	124.0	124.0	124.0	150.0	150.0	150.0	39.3	182.7	114.9	6860870.0	2249414.0	362.0	5257.0	97.9	100.0	99.22887264362255	0.0	97.9266376680009	99.99818760606655	0.0	0.0	0.0
